[
  {
    "country": "IN",
    "name": "Hyderabad",
    "lat": "17.38405",
    "lng": "78.45636"
  },
  {
    "country": "IN",
    "name": "Bengaluru",
    "lat": "12.97194",
    "lng": "77.59369"
  },
  {
    "country": "IN",
    "name": "New Delhi",
    "lat": "28.63576",
    "lng": "77.22445"
  },
  {
    "country": "IN",
    "name": "Vijayawada",
    "lat": "16.50745",
    "lng": "80.6466"
  },
  {
    "country": "IN",
    "name": "Guntur",
    "lat": "16.29974",
    "lng": "80.45729"
  },
  {
    "country": "IN",
    "name": "Guntakal Junction",
    "lat": "15.17112",
    "lng": "77.36244"
  },
  {
    "country": "IN",
    "name": "Gunnaur",
    "lat": "28.23995",
    "lng": "78.43994"
  },
  {
    "country": "IN",
    "name": "Mumbai",
    "lat": "19.07283",
    "lng": "72.88261"
  },
  {
    "country": "US",
    "name": "Buda",
    "lat": "30.08521",
    "lng": "-97.84028"
  },
  {
    "country": "US",
    "name": "Boaz",
    "lat": "34.20065",
    "lng": "-86.16637"
  },
  {
    "country": "US",
    "name": "Brent",
    "lat": "32.93735",
    "lng": "-87.16472"
  },
  {
    "country": "US",
    "name": "Brewton",
    "lat": "31.10518",
    "lng": "-87.07219"
  },
  {
    "country": "US",
    "name": "Washington, D.C.",
    "lat": "38.89511",
    "lng": "-77.03637"
  },
  {
    "country": "US",
    "name": "California",
    "lat": "38.3004",
    "lng": "-76.50745"
  }
]